Statistics for biology 2019 takehome final exam Po-Chun Chen N11957611
…
mouse

## # A tibble: 36 x 4
##    Glycogen Treatment Mouse Liver
##       <dbl> <fct>     <fct> <fct>
##  1      131 1         1     1    
##  2      130 1         1     1    
##  3      131 1         1     2    
##  4      125 1         1     2    
##  5      136 1         1     3    
##  6      142 1         1     3    
##  7      150 1         2     1    
##  8      148 1         2     1    
##  9      140 1         2     2    
## 10      143 1         2     2    
## #  with 26 more rows
…
